<svg width="79" height="58" viewBox="0 0 79 58" fill="none" xmlns="http://www.w3.org/2000/svg">
<path d="M43.1281 22.3226H28.8599V15.1906H43.1281V22.3226Z" fill="#F8EEFF"/>
<path d="M28.8602 36.5866H21.7261V22.3226H28.8602V36.5866Z" fill="#F8EEFF"/>
<path d="M43.1281 43.7185H28.8599V36.5865H43.1281V43.7185Z" fill="#F8EEFF"/>
<path d="M50.28 36.5866H43.1284V22.3226H50.28V36.5866Z" fill="#F8EEFF"/>
<path d="M78.816 58H7.43994V50.868H78.816V58Z" fill="#F8EEFF"/>
<path d="M28.86 15.1905H0.306152V8.04114H28.86V15.1905Z" fill="#F8EEFF"/>
<path d="M78.8164 15.1905H43.1284V8.04114H78.8164V15.1905Z" fill="#F8EEFF"/>
<path d="M7.44026 57.9998H0.306152V8.04114H7.44026V57.9998Z" fill="#F8EEFF"/>
<path d="M78.8162 57.9998H71.6821V8.04114H78.8162V57.9998Z" fill="#F8EEFF"/>
<path d="M64.5482 29.4546H57.4141V22.3226H64.5482V29.4546Z" fill="#F8EEFF"/>
<path d="M14.5741 8.04121H7.43994V0.90918H14.5741V8.04121Z" fill="#F8EEFF"/>
<path d="M50.28 8.04121H21.7261V0.90918H50.28V8.04121Z" fill="#F8EEFF"/>
<path d="M71.6823 15.1906H57.4141V0.90918H71.6823V15.1906Z" fill="#F8EEFF"/>
</svg>
