<svg width="19" height="18" viewBox="0 0 19 18" fill="none" xmlns="http://www.w3.org/2000/svg">
<path d="M12.449 12.0091H6.44768L6.44768 6.00244L12.449 6.00244L12.449 12.0091Z" fill="#F8EEFF"/>
<path d="M6.45288 17.9997H0.451588L0.451588 11.9984L6.45288 11.9984L6.45288 17.9997Z" fill="#F8EEFF"/>
<path d="M18.4502 6.00252L12.4489 6.00252V0.0012207L18.4502 0.0012207V6.00252Z" fill="#F8EEFF"/>
<path d="M6.44775 6.00252L0.441105 6.00252L0.441105 0.0012207L6.44775 0.0012207L6.44775 6.00252Z" fill="#F8EEFF"/>
<path d="M18.4502 17.989H12.4489V11.9877L18.4502 11.9877V17.989Z" fill="#F8EEFF"/>
<path d="M6.45304 12.0091L12.449 12.0091V12.0038L6.45304 12.0038V12.0091Z" fill="#F8EEFF"/>
<path d="M6.45288 17.9997L6.45288 12.0091V12.0038H6.44752L6.44752 17.9944H6.45288V17.9997Z" fill="#F8EEFF"/>
<path d="M0.451588 18H6.45288V17.9946H6.44752H0.451588V18Z" fill="#F8EEFF"/>
<path d="M12.4489 12.0037L18.4502 12.0037V11.9877L12.4489 11.9877V12.0037Z" fill="#F8EEFF"/>
<path d="M12.4489 6.00256L18.4502 6.00256V5.99719L12.4489 5.99719V6.00256Z" fill="#F8EEFF"/>
<path d="M0.451821 12.0038L6.44775 12.0038V11.9984L0.451821 11.9984V12.0038Z" fill="#F8EEFF"/>
<path d="M0.441105 6.00256L6.44775 6.00256V5.99719L0.441105 5.99719V6.00256Z" fill="#F8EEFF"/>
<path d="M12.4489 17.9893H18.4502V17.9839H12.4489V17.9893Z" fill="#F8EEFF"/>
</svg>
