<svg width="38" height="82" viewBox="0 0 38 82" fill="none" xmlns="http://www.w3.org/2000/svg">
<path d="M8.14049 30.3862H0.766602V0.893555H8.14049V30.3862Z" fill="#F8EEFF"/>
<path d="M30.2684 37.758H8.14062V30.3864H30.2684V37.758Z" fill="#F8EEFF"/>
<path d="M37.642 30.3862H30.2681V0.893555H37.642V30.3862Z" fill="#F8EEFF"/>
<path d="M22.8881 74.6282H15.5142V37.7579H22.8881V74.6282Z" fill="#F8EEFF"/>
<path d="M37.6421 82H0.766602V74.6283H37.6421V82Z" fill="#F8EEFF"/>
<path d="M37.6421 8.26525H0.766602V0.893555H37.6421V8.26525Z" fill="#F8EEFF"/>
</svg>
