<svg width="48" height="39" viewBox="0 0 48 39" fill="none" xmlns="http://www.w3.org/2000/svg">
<path d="M38.3228 10.4157V0.890503L28.7976 0.890503V10.4157L19.2638 10.4157V0.890503L9.73858 0.890503L9.73858 10.4157L0.204834 10.4157L0.204834 19.9495H9.73858L9.73858 29.4747L19.2638 29.4747L19.2638 39L28.7976 39L28.7976 29.4747L38.3228 29.4747L38.3228 19.9495H47.8481V10.4157L38.3228 10.4157Z" fill="#F8EEFF"/>
</svg>
