<svg width="53" height="74" viewBox="0 0 53 74" fill="none" xmlns="http://www.w3.org/2000/svg">
<path d="M15.6742 22.3862H8.30029V15.0145H15.6742V22.3862Z" fill="#F8EEFF"/>
<path d="M8.30035 15.0146H0.92041V7.64294H8.30035V15.0146Z" fill="#F8EEFF"/>
<path d="M23.0482 29.758H15.6743V22.3864H23.0482V29.758Z" fill="#F8EEFF"/>
<path d="M37.8016 29.758H30.4277V22.3864H37.8016V29.758Z" fill="#F8EEFF"/>
<path d="M45.1756 22.3862H37.8018V15.0145H45.1756V22.3862Z" fill="#F8EEFF"/>
<path d="M52.5497 15.0146H45.1758V7.64294H52.5497V15.0146Z" fill="#F8EEFF"/>
<path d="M30.4275 66.6282H23.0479V29.7579H30.4275V66.6282Z" fill="#F8EEFF"/>
<path d="M45.1755 74H8.30029V66.6283H45.1755V74Z" fill="#F8EEFF"/>
<path d="M52.5495 7.64285H0.92041V0.265259H52.5495V7.64285Z" fill="#F8EEFF"/>
</svg>
