<svg width="66" height="109" viewBox="0 0 66 109" fill="none" xmlns="http://www.w3.org/2000/svg">
<path d="M32.519 21.6526L43.486 21.5743L43.5643 32.5282L32.5973 32.6065L32.519 21.6526Z" fill="#F8EEFF"/>
<path d="M21.562 21.7308L32.5191 21.6526L32.5974 32.6065L21.6402 32.6847L21.562 21.7308Z" fill="#F8EEFF"/>
<path d="M21.4836 10.777L32.4408 10.6987L32.519 21.6526L21.5619 21.7309L21.4836 10.777Z" fill="#F8EEFF"/>
<path d="M10.6833 0.126173L21.6405 0.0479736L21.7188 11.0116L10.7616 11.0899L10.6833 0.126173Z" fill="#F8EEFF"/>
<path d="M32.5974 32.6065L43.5644 32.5282L43.6426 43.4821L32.6855 43.5701L32.5974 32.6065Z" fill="#F8EEFF"/>
<path d="M43.5645 32.5282L54.5216 32.45L54.5998 43.4038L43.6427 43.4821L43.5645 32.5282Z" fill="#F8EEFF"/>
<path d="M32.6858 43.5701L43.6429 43.4821L43.7212 54.4457L32.764 54.5239L32.6858 43.5701Z" fill="#F8EEFF"/>
<path d="M43.6428 43.4822L54.6 43.4039L54.6783 54.3676L43.7211 54.4459L43.6428 43.4822Z" fill="#F8EEFF"/>
<path d="M54.5999 43.4039L65.5668 43.3257L65.6451 54.2893L54.6781 54.3676L54.5999 43.4039Z" fill="#F8EEFF"/>
<path d="M33.116 87.3954L22.1588 87.4736L22.0806 76.5197L33.0377 76.4415L33.116 87.3954Z" fill="#F8EEFF"/>
<path d="M44.0828 87.3172L33.1159 87.3954L33.0376 76.4415L43.9948 76.3633L44.0828 87.3172Z" fill="#F8EEFF"/>
<path d="M44.1611 98.271L33.1942 98.3492L33.116 87.3954L44.0829 87.3171L44.1611 98.271Z" fill="#F8EEFF"/>
<path d="M54.9619 108.922L43.995 109L43.9167 98.0363L54.8837 97.9581L54.9619 108.922Z" fill="#F8EEFF"/>
<path d="M33.0376 76.4416L22.0805 76.5198L22.0022 65.566L32.9594 65.4779L33.0376 76.4416Z" fill="#F8EEFF"/>
<path d="M22.0806 76.5198L11.1136 76.598L11.0354 65.6441L22.0023 65.5659L22.0806 76.5198Z" fill="#F8EEFF"/>
<path d="M32.9595 65.4779L22.0023 65.566L21.9143 54.6023L32.8812 54.524L32.9595 65.4779Z" fill="#F8EEFF"/>
<path d="M43.7994 65.3998L32.8422 65.478L32.7639 54.5241L43.7211 54.4459L43.7994 65.3998Z" fill="#F8EEFF"/>
<path d="M32.8225 54.5826L21.8654 54.6609L21.7773 43.707L32.7443 43.6288L32.8225 54.5826Z" fill="#F8EEFF"/>
<path d="M22.0022 65.5659L11.0353 65.6441L10.957 54.6804L21.9142 54.6022L22.0022 65.5659Z" fill="#F8EEFF"/>
<path d="M11.0354 65.6442L0.0782821 65.7224L0 54.7587L10.9572 54.6805L11.0354 65.6442Z" fill="#F8EEFF"/>
</svg>
