<svg width="48" height="67" viewBox="0 0 48 67" fill="none" xmlns="http://www.w3.org/2000/svg">
<path d="M28.8304 38.6196H19.3052V29.0944H28.8304V38.6196Z" fill="#F8EEFF"/>
<path d="M19.305 48.1538H9.77124L9.77124 38.62H19.305V48.1538Z" fill="#F8EEFF"/>
<path d="M28.8304 48.1538H19.3052V38.62H28.8304V48.1538Z" fill="#F8EEFF"/>
<path d="M28.8304 57.6789H19.3052V48.1537H28.8304V57.6789Z" fill="#F8EEFF"/>
<path d="M38.1515 67H28.6262V57.4747H38.1515V67Z" fill="#F8EEFF"/>
<path d="M19.305 38.6196H9.77124L9.77124 29.0944H19.305V38.6196Z" fill="#F8EEFF"/>
<path d="M9.77158 38.6196H0.246338L0.246338 29.0944H9.77158L9.77158 38.6196Z" fill="#F8EEFF"/>
<path d="M19.1948 28.9926H28.7286V38.5178H19.1948V28.9926Z" fill="#F8EEFF"/>
<path d="M28.729 19.4589H38.2543V28.9926H28.729V19.4589Z" fill="#F8EEFF"/>
<path d="M19.1948 19.4589H28.7286V28.9926H19.1948V19.4589Z" fill="#F8EEFF"/>
<path d="M19.1948 9.93359L28.7286 9.93359V19.4588H19.1948V9.93359Z" fill="#F8EEFF"/>
<path d="M9.87378 0.612183L19.4075 0.612183V10.1374L9.87378 10.1374L9.87378 0.612183Z" fill="#F8EEFF"/>
<path d="M28.729 28.9926H38.2543V38.5178H28.729V28.9926Z" fill="#F8EEFF"/>
<path d="M38.2537 28.9926H47.7874V38.5178H38.2537V28.9926Z" fill="#F8EEFF"/>
</svg>
