<svg width="62" height="69" viewBox="0 0 62 69" fill="none" xmlns="http://www.w3.org/2000/svg">
<path d="M53.6231 31.0968H46.0462H38.463V23.5198H46.0462V15.9367H53.6231V8.3536V0.776611H46.0462H38.463H30.886H23.303H15.7199V8.3536V15.9367H8.14286V23.5198V31.0968V38.6798H0.565918V46.2568H8.14286H15.7199H23.303V53.8399V61.4169V69H30.886V61.4169H38.463V53.8399H46.0462V46.2568H53.6231V38.6798H61.2063V31.0968H53.6231Z" fill="#F8EEFF"/>
</svg>
